//= ../templates/xml-for-svg.svg
<svg version="1.1" xmlns="http://www.w3.org/2000/svg" xmlns:xlink="http://www.w3.org/1999/xlink" width="32" height="32">
    <polyline points="12,32 3,3 32,12" stroke="black" stroke-width="4" fill="#3298fe" stroke-linejoin="miter"></polyline>
    <polygon points="32,32 10,32 32,10" fill="#3298fe"></polygon>
</svg>