//= ../templates/xml-for-svg.svg
<svg version="1.1" xmlns="http://www.w3.org/2000/svg" xmlns:xlink="http://www.w3.org/1999/xlink" width="32" height="45">
    <polyline points="2,30 16,4 30,30" stroke="black" stroke-width="4" fill="#3298fe" stroke-linejoin="miter"></polyline>
    <polygon points="16,45 0,29 32,29" fill="#3298fe"></polygon>
</svg>