//= ../templates/xml-for-svg.svg
<svg version="1.1" xmlns="http://www.w3.org/2000/svg" xmlns:xlink="http://www.w3.org/1999/xlink" width="40" height="40" viewBox="0 0 40 40">
    <polyline class="right-bg" points="-1,-1 21,0 14,22 26,22 19,40 -1,41 -1,-1" fill="rgba(220,100,0,0.8)"></polyline>
    <polyline class="left-bg" points="41,-1 21,0 14,22 26,22 19,40 41,41 41,-1" fill="rgba(0,0,0,0.8)"></polyline>
    <polyline class="v-letter" points="6.5,11 20,38 33.5,11" stroke="white" stroke-width="3.5" fill="none"></polyline>
    <rect width="10" height="3" fill="white" x="2.6" y="10"></rect>
    <rect width="10" height="3" fill="white" x="27.4" y="10"></rect>
    <polygon points="20,40 20,33.5 19,40" fill="rgba(220,100,0,0.8)"></polygon>
    <polygon points="20,40 20,33.5 21,40" fill="rgba(0,0,0,0.8)"></polygon>
</svg>